digraph "SVFG" {
	label="SVFG";

	Node0x60c000000f40 [shape=record,color=grey,label="{NodeID: 0\nNullPtr}"];
	Node0x60c000000f40 -> Node0x60c000001780[style=solid];
	Node0x60f000002d40 [shape=record,color=black,style=double,label="{NodeID: 26\n46 = cmp(45, 14, )\n}"];
	Node0x60c000001480 [shape=record,color=green,label="{NodeID: 7\n26\<--27\n}"];
	Node0x60c0000019c0 [shape=record,color=red,label="{NodeID: 14\n16\<--10\n}"];
	Node0x60c0000019c0 -> Node0x60c000001840[style=solid];
	Node0x60c0000010c0 [shape=record,color=green,label="{NodeID: 2\n30\<--1\nCan only get source location for instruction, argument, global var or function.|{<s0>1}}"];
	Node0x60c0000010c0:s0 -> Node0x610000000d40[style=solid,color=red];
	Node0x610000000c40 [shape=record,color=black,label="{NodeID: 28\nMR_4V_3 = PHI(MR_4V_4, MR_4V_2, )\npts\{11 \}\n}"];
	Node0x610000000c40 -> Node0x60c0000019c0[style=dashed];
	Node0x610000000c40 -> Node0x60c000001a80[style=dashed];
	Node0x610000000c40 -> Node0x60c000001d80[style=dashed];
	Node0x60c000001600 [shape=record,color=green,label="{NodeID: 9\n38\<--39\n}"];
	Node0x610000000d40 [shape=record,color=black,label="{NodeID: 35\n7 = PHI(30, 36, )\n0th arg loop_until }"];
	Node0x610000000d40 -> Node0x60c000001c00[style=solid];
	Node0x60c000001b40 [shape=record,color=red,label="{NodeID: 16\n45\<--42\n}"];
	Node0x60c000001b40 -> Node0x60f000002d40[style=solid];
	Node0x60c000001240 [shape=record,color=green,label="{NodeID: 4\n4\<--5\n}"];
	Node0x60c000001780 [shape=record,color=black,label="{NodeID: 11\n2\<--3\n}"];
	Node0x60c000001cc0 [shape=record,color=blue,label="{NodeID: 18\n10\<--14\n}"];
	Node0x60c000001cc0 -> Node0x610000000c40[style=dashed];
	Node0x60f000002c50 [shape=record,color=black,style=double,label="{NodeID: 25\n22 = Binary(21, 14, )\n}"];
	Node0x60f000002c50 -> Node0x60c000001d80[style=solid];
	Node0x60c0000013c0 [shape=record,color=green,label="{NodeID: 6\n10\<--11\n}"];
	Node0x60c0000013c0 -> Node0x60c0000019c0[style=solid];
	Node0x60c0000013c0 -> Node0x60c000001a80[style=solid];
	Node0x60c0000013c0 -> Node0x60c000001cc0[style=solid];
	Node0x60c0000013c0 -> Node0x60c000001d80[style=solid];
	Node0x60c000001900 [shape=record,color=red,label="{NodeID: 13\n18\<--8\n}"];
	Node0x60c000001900 -> Node0x60f000002e30[style=solid];
	Node0x60c000001e40 [shape=record,color=blue,label="{NodeID: 20\n42\<--41\n}"];
	Node0x60c000001e40 -> Node0x60c000001b40[style=dashed];
	Node0x60c000001000 [shape=record,color=green,label="{NodeID: 1\n14\<--1\nCan only get source location for instruction, argument, global var or function.}"];
	Node0x60f000002e30 [shape=record,color=black,style=double,label="{NodeID: 27\n19 = cmp(17, 18, )\n}"];
	Node0x60c000001540 [shape=record,color=green,label="{NodeID: 8\n32\<--33\n}"];
	Node0x60c000001a80 [shape=record,color=red,label="{NodeID: 15\n21\<--10\n}"];
	Node0x60c000001a80 -> Node0x60f000002c50[style=solid];
	Node0x60c000001180 [shape=record,color=green,label="{NodeID: 3\n36\<--1\nCan only get source location for instruction, argument, global var or function.|{<s0>2}}"];
	Node0x60c000001180:s0 -> Node0x610000000d40[style=solid,color=red];
	Node0x60c0000016c0 [shape=record,color=green,label="{NodeID: 10\n42\<--43\n}"];
	Node0x60c0000016c0 -> Node0x60c000001b40[style=solid];
	Node0x60c0000016c0 -> Node0x60c000001e40[style=solid];
	Node0x610000000e40 [shape=record,color=black,label="{NodeID: 36\n41 = PHI()\n0th arg func }"];
	Node0x610000000e40 -> Node0x60c000001e40[style=solid];
	Node0x60c000001c00 [shape=record,color=blue,label="{NodeID: 17\n8\<--7\n}"];
	Node0x60c000001c00 -> Node0x60c000001900[style=dashed];
	Node0x60c000001300 [shape=record,color=green,label="{NodeID: 5\n8\<--9\n}"];
	Node0x60c000001300 -> Node0x60c000001900[style=solid];
	Node0x60c000001300 -> Node0x60c000001c00[style=solid];
	Node0x60c000001840 [shape=record,color=black,label="{NodeID: 12\n17\<--16\n}"];
	Node0x60c000001840 -> Node0x60f000002e30[style=solid];
	Node0x60c000001d80 [shape=record,color=blue,label="{NodeID: 19\n10\<--22\n}"];
	Node0x60c000001d80 -> Node0x610000000c40[style=dashed];
}
